[
{
 "model": "auth.user",
 "pk": 1,
 "fields": {
  "password": "pbkdf2_sha256$120000$H3iw37VuMewm$d0fC/f0yeweIK/Y8ExiVF9GNzJJWSGtOG0h5oTZzGb4=",
  "last_login": "2019-03-19T12:25:05.452Z",
  "is_superuser": false,
  "username": "phillexfm",
  "first_name": "",
  "last_name": "",
  "email": "",
  "is_staff": false,
  "is_active": true,
  "date_joined": "2019-03-19T10:55:00.772Z",
  "groups": [],
  "user_permissions": []
 }
},
{
 "model": "auth.user",
 "pk": 2,
 "fields": {
  "password": "pbkdf2_sha256$120000$I0dzkIv5zc5Q$ezX2aLBrLKZ51QAmVirbnannO3CyctMfVsXfLKG7+e4=",
  "last_login": "2019-03-26T08:35:00.942Z",
  "is_superuser": true,
  "username": "phillip",
  "first_name": "",
  "last_name": "",
  "email": "phillipmarcel@web.de",
  "is_staff": true,
  "is_active": true,
  "date_joined": "2019-03-19T11:39:51.303Z",
  "groups": [],
  "user_permissions": []
 }
},
{
 "model": "auth.user",
 "pk": 3,
 "fields": {
  "password": "pbkdf2_sha256$120000$o7MQaZjWqr54$Q19mq33MQuxxqYmA3OGRZdyE4qSvkoa5ju73hRNfxiQ=",
  "last_login": null,
  "is_superuser": false,
  "username": "NewUser2",
  "first_name": "",
  "last_name": "",
  "email": "newuser2@aol.de",
  "is_staff": false,
  "is_active": true,
  "date_joined": "2019-03-19T11:53:09.033Z",
  "groups": [],
  "user_permissions": []
 }
},
{
 "model": "auth.user",
 "pk": 4,
 "fields": {
  "password": "pbkdf2_sha256$120000$C8JVKTD2XZyv$eyAx+n64sWw2vE33ufBHhxalGt2xRT8f8SzC2PQJVbw=",
  "last_login": "2019-03-29T23:01:18.921Z",
  "is_superuser": true,
  "username": "WebVinylTeam",
  "first_name": "",
  "last_name": "",
  "email": "",
  "is_staff": true,
  "is_active": true,
  "date_joined": "2019-03-19T12:47:29Z",
  "groups": [],
  "user_permissions": []
 }
},
{
 "model": "auth.user",
 "pk": 7,
 "fields": {
  "password": "pbkdf2_sha256$120000$6l92guMaCFpn$PVr4KV6/0cspRyGl6Tsgotg2O/VG2wrVwB0Lef+NYOw=",
  "last_login": null,
  "is_superuser": false,
  "username": "Testuser420",
  "first_name": "",
  "last_name": "",
  "email": "a@b.de",
  "is_staff": false,
  "is_active": true,
  "date_joined": "2019-03-29T22:57:24.308Z",
  "groups": [],
  "user_permissions": []
 }
},
{
 "model": "users.profil",
 "pk": 4,
 "fields": {
  "user": 2,
  "image": "profile_pics/images1.jpg",
  "follows": []
 }
},
{
 "model": "users.profil",
 "pk": 5,
 "fields": {
  "user": 7,
  "image": "default.jpg",
  "follows": []
 }
},
{
 "model": "users.profil",
 "pk": 6,
 "fields": {
  "user": 4,
  "image": "default.jpg",
  "follows": [
   5,
   9
  ]
 }
},
{
 "model": "users.profil",
 "pk": 7,
 "fields": {
  "user": 3,
  "image": "default.jpg",
  "follows": [
   4
  ]
 }
},
{
 "model": "users.profil",
 "pk": 9,
 "fields": {
  "user": 1,
  "image": "default.jpg",
  "follows": [
   5
  ]
 }
}
]
