[
{
 "model": "users.profile",
 "pk": 4,
 "fields": {
  "user": 2,
  "image": "profile_pics/images1.jpg",
  "description": "",
  "follows": []
 }
},
{
 "model": "users.profile",
 "pk": 5,
 "fields": {
  "user": 7,
  "image": "default.jpg",
  "description": "",
  "follows": []
 }
},
{
 "model": "users.profile",
 "pk": 6,
 "fields": {
  "user": 4,
  "image": "profile_pics/done.gif",
  "description": "test",
  "follows": [
   9,
   10
  ]
 }
},
{
 "model": "users.profile",
 "pk": 7,
 "fields": {
  "user": 3,
  "image": "default.jpg",
  "description": "",
  "follows": [
   4
  ]
 }
},
{
 "model": "users.profile",
 "pk": 9,
 "fields": {
  "user": 1,
  "image": "default.jpg",
  "description": "",
  "follows": [
   5
  ]
 }
},
{
 "model": "users.profile",
 "pk": 10,
 "fields": {
  "user": 8,
  "image": "default.jpg",
  "description": "",
  "follows": []
 }
},
{
 "model": "users.profile",
 "pk": 11,
 "fields": {
  "user": 13,
  "image": "default.jpg",
  "description": "",
  "follows": []
 }
}
]
